{
  "texts": {
    "en": {
      "encounterEvents": {
        "all_is_dust": {
          "name": "All is Dust",
          "description": "If any discovery markers are still on the battlefield, the leader must discard 1 of them. If there are none, each explorer loses 1 inspiration point (min 0)."
        },
        "unfulfilled_destiny": {
          "name": "Unfulfilled Destiny",
          "description": "Do not make a destiny roll at the start of the next turn."
        },
        "not_dead_yet": {
          "name": "No dead yet",
          "description": "The leader must pick 1 hostile that was slain during the combat and has not returned to the battlefiel, and deploy them as close to an explorer as possible."
        },
        "changing_conditions": {
          "name": "Changing conditions",
          "description": "Draw an encounter card. If it has a twist, it applies for the rest of the combat. If not, there is no effect."
        },
        "escape_chamber": {
          "name": "Escape chamber",
          "description": "The leader replaces the portal furthest from any explorers with a maglev transport escape chamber. If more than 1 is equally far away, the leader can choose which to replace. If this event has already been rolled, or if an explorer has used a Summon action, there is no effect."
        },
        "inspiration": {
          "name": "Inspiration",
          "description": "The leader picks an explorer to receive 1 inspiration point."
        },
        "heroic_effort": {
          "name": "Heroic effort",
          "description": "The leader picks an out of action explorer. Deploy the explorer in the same hex as another explorer or as close as possible, then make a vitality roll for them. If no explorers are out of action, the leader picks an explorer to make a vitality roll."
        },
        "lucky_find": {
          "name": "Lucky find",
          "description": "The leader picks an explorer to draw a discovery card."
        },
        "grinding_chamber_jams": {
          "name": "Grinding Chamber Jams",
          "description": "Do not rotate the Grinding Chamber in this event phase."
        },
        "grinding_chamber_accelerates": {
          "name": "Grinding Chamber Accelerates",
          "description": "The leader can choose if the Grinding Chamber rotates 60 degrees, 120 degrees or 180 degrees clockwise in this event phase."
        },
        "stairs_blocked": {
          "name": "Stairs Blocked",
          "description": "Explorers and hostiles cannot move or attack from one set of stairs to the other set of stairs in the next turn."
        },
        "access_controls_breakthrough": {
          "name": "Access Controls Brealthrough",
          "description": "One explorer in the Access Controls hex can immediately take an Access action without having to spend an activation dice. If there are no explorers in the hex, treat this as an **Inspiration** result instead.",
          "alternativeReference": "inspiration"
        },
        "reserves": {
          "name": "Reserves",
          "description": "Add 2 Traitor Guardsmen Sergeants to the hostile group [GROUP2]. They will arrive as reinforcements the next time hostile group 2 is activated, in addition to any other reinforcement that may arrive. If this result is rolled a second time or more, trat this as a **Laser Barrier Overload** result instead.",
          "alternativeReference": "laser_barrier_overload"
        },
        "laser_barrier_overload": {
          "name": "Laser Barrier Overload",
          "description": "Explorers must re-roll successful agility rolls for moving or taking an action other than a Move action in the Laser Barrier hex next turn."
        },
        "laser_barrier_shuts_down": {
          "name": "Laser Barrier Shuts Down",
          "description": "Explorers do not need to take an agility roll for moving or taking an action other than a Move action in the Laser Barrier hex next turn."
        },
        "hostiles_revealed": {
          "name": "Hostiles Revealed",
          "description": "If there are still unrevealed hostile group discover markers, the one furthest from an explorer is revealed. If more than one marker is equally far from an explorer, the leader chooses which to reveal. If all of the markers have been revealed, treat this as a **Not Dead Yet** result instead.",
          "alternativeReference": "not_dead_yet"
        },
        "hostiles_revealed_plus": {
          "name": "Hostiles Revealed",
          "description": "If there are still unrevealed hostile group discover markers, the one furthest from an explorer is revealed. If more than one marker is equally far from an explorer, the leader chooses which to reveal. If all of the markers have been revealed, treat this as an **Inspiration** result instead.",
          "alternativeReference": "inspiration"
        },
        "protection_protocols": {
          "name": "Protection Protocols",
          "description": "Explorers cannot open the statis cube this turn."
        },
        "flurry_of_fire": {
          "name": "Flurry of Fire",
          "description": "Next turn, treat the Annihilation Turret as if it were firing along all six of the hex rows it can face."
        },
        "brief_respite": {
          "name": "Brief Respite",
          "description": "The leader must pick one hostile group. Hostiles from that group that have been slain are not deployed when it is activated next turn - only use the hostiles from the group that are on the battlefield (if any)."
        }
      },
      "encounterTypes": {
        "default": {
          "name": "Normal Expedition"
        },
        "deathmaze": {
          "name": "The Deathmaze"
        },
        "descent": {
          "name": "The Descent"
        },
        "corridor_of_death": {
          "name": "Corridor of Death"
        },
        "null_gravity_abyss": {
          "name": "Null-Gravity Abyss"
        },
        "hidden_crypt": {
          "name": "The Hidden Crypt"
        }
      }
    }
  },
  "encounterTypes": [
    {
      "id": "default",
      "table": {
        "1": "all_is_dust",
        "3": "unfulfilled_destiny",
        "6": "not_dead_yet",
        "10": "changing_conditions",
        "14": "escape_chamber",
        "17": "inspiration",
        "19": "heroic_effort",
        "20": "lucky_find"
      },
      "hostileGroups": []
    },
    {
      "id": "deathmaze",
      "table": {
        "1": "all_is_dust",
        "3": "unfulfilled_destiny",
        "6": "not_dead_yet",
        "10": "grinding_chamber_jams",
        "14": "grinding_chamber_accelerates",
        "17": "inspiration",
        "19": "heroic_effort",
        "20": "lucky_find"
      },
      "hostileGroups": [
        "obsidius_mallex+chaos_space_marine+rogue_psyker",
        "traitor_guardsman",
        "negavolt_cultist",
        "chaos_beastman"
      ]
    },
    {
      "id": "descent",
      "table": {
        "1": "all_is_dust",
        "3": "unfulfilled_destiny",
        "6": "not_dead_yet",
        "10": "stairs_blocked",
        "14": "access_controls_breakthrough",
        "17": "inspiration",
        "19": "heroic_effort",
        "20": "lucky_find"
      },
      "hostileGroups": [
        "rogue_psyker+chaos_space_marine+traitor_guardsman",
        "negavolt_cultist+chaos_space_marine+traitor_guardsman",
        "chaos_beastman+traitor_guardsman"
      ]
    },
    {
      "id": "corridor_of_death",
      "table": {
        "1": "all_is_dust",
        "3": "unfulfilled_destiny",
        "6": "not_dead_yet",
        "8": "reserves",
        "10": "laser_barrier_overload",
        "14": "laser_barrier_shuts_down",
        "17": "inspiration",
        "19": "heroic_effort",
        "20": "lucky_find"
      },
      "hostileGroups": [
        "chaos_space_marine+rogue_psyker+traitor_guardsman",
        "traitor_guardsman",
        "negavolt_cultist+chaos_beastman",
        "ur_ghul"
      ]
    },
    {
      "id": "null_gravity_abyss",
      "table": {
        "1": "all_is_dust",
        "3": "unfulfilled_destiny",
        "6": "not_dead_yet",
        "10": "hostiles_revealed",
        "14": "hostiles_revealed_plus",
        "17": "inspiration",
        "19": "heroic_effort",
        "20": "lucky_find"
      },
      "hostileGroups": [
        "traitor_guardsman",
        "chaos_space_marine+chaos_beastman",
        "rogue_psyker+negavolt_cultist",
        "spindle_drone"
      ]
    },
    {
      "id": "hidden_crypt",
      "table": {
        "1": "all_is_dust",
        "3": "unfulfilled_destiny",
        "6": "protection_protocols",
        "10": "flurry_of_fire",
        "14": "brief_respite",
        "17": "inspiration",
        "19": "heroic_effort",
        "20": "lucky_find"
      },
      "hostileGroups": []
    }
  ]
}
