{
  "texts": {
    "en": {
      "ui": {
        "none": "None",
        "profileSize": {
          "small": "Small",
          "large": "Large",
          "huge": "Huge"
        },
        "saveSelection": {
          "picksave": "Pick a save to play:",
          "createnewsave": "Create new save"
        },
        "saveStatus": {
          "PLANNING_EXPEDITION": "At Precipice",
          "IN_EXPEDITION": "In Expedition",
          "IN_COMBAT": "In Combat"
        }
      }
    }
  }
}
