{
  "texts": {
    "en": {
      "explorerProfiles": {
        "janus_draik": {
          "name": "Janus Draik",
          "title": "Rogue Trader",
          "secretAgenda": "Have the Empyrean Chronometer discovery card. If Janus Draik has the Empyrean Chronometer at the start of an expedition, he starts the expedition inspired.",
          "weaponActions": {
            "pistol_and_rapier": "Pistol & Rapier (1+)",
            "flurry_of_attacks": "Flurry of Attacks (4+/6+)"
          },
          "weaponRules": {
            "flurry_of_attacks": {
              "name": "Flurry of Attacks",
              "description": "When taking a Flurry of Attacks weapon action, Janus Draik can attack twice for a cost of (4+) or three times for a cost of (6+). Carry out each attack one at a time, one after the other. The target chosen for the second and third attacks must either be the same the target of the previous attack, or in the same hex as or an adjacent hex to the target of the previous attack."
            }
          },
          "specialRules": {
            "strategist": {
              "name": "Strategist",
              "description": "In the first turn of combat, Janus Draik can perform a gambit without an activation dice being spent."
            },
            "swashbuckler": {
              "name": "Swashbucker",
              "description": "If a defence roll for Janus Draik is a critical success and the attacker is in an adjacent hex, he can immediately take a Pistol & Rapier weapon action without having to spend an activation dice."
            }
          }
        },
        "janus_draik__inspired": {
          "name": "Janus Draik (inspired)",
          "specialRules": {
            "inspired_strategist": {
              "name": "Inspired Strategist",
              "description": "In **each** turn of combat, Janus Draik can perform a gambit without an activation dice being spent."
            }
          }
        }
      }
    }
  },
  "styles": {
    "explorerCombatCards": {
      "janus_draik": {
        "backgroundPosition": "79% 27%"
      }
    },
    "explorerManoeuverCards": {
      "janus_draik": {
        "backgroundPosition": "72% 32%"
      }
    },
    "explorerProfileHeaders": {
      "janus_draik": {
        "backgroundPosition": "100% 24%"
      }
    }
  },
  "explorerProfiles": [
    {
      "id": "janus_draik",
      "ship": "vanguard",
      "move": 2,
      "defence": "[TRIANGLE]",
      "agility": "[TRIANGLE]",
      "vitality": "[TRIANGLE]",
      "numberOfActions": 4,
      "weaponActions": [
        {
          "id": "pistol_and_rapier",
          "shortRange": "[TRIANGLE]",
          "midRange": "[TRIANGLE]",
          "longRange": "[SQUARE]"
        },
        {
          "id": "flurry_of_attacks",
          "shortRange": "[TRIANGLE]",
          "rules": [
            "flurry_of_attacks"
          ]
        }
      ],
      "weaponRules": [
        "flurry_of_attacks"
      ],
      "specialRules": [
        "strategist",
        "swashbuckler"
      ],
      "reminders": {
        "before_combat": [
          "strategist"
        ]
      }
    },
    {
      "id": "janus_draik__inspired",
      "agility": "[PENTAGON]",
      "weaponActions": [
        {
          "id": "pistol_and_rapier",
          "shortRange": "[PENTAGON]",
          "midRange": "[PENTAGON]",
          "longRange": "[TRIANGLE]"
        },
        {
          "id": "flurry_of_attacks",
          "shortRange": "[PENTAGON]",
          "rules": [
            "flurry_of_attacks"
          ]
        }
      ],
      "specialRules": [
        "inspired_strategist",
        "swashbuckler"
      ],
      "reminders": {
        "before_combat": [],
        "beginning_of_turn": [
          "inspired_strategist"
        ]
      }
    }
  ]
}
