{
  "texts": {
    "en": {
      "hostileGroups": {
        "chaos_beastman": "Chaos Beastmen",
        "chaos_space_marine": "Chaos Space Marines",
        "negavolt_cultist": "Negavolt Cultists",
        "rogue_psyker": "Rogue Psykers",
        "spindle_drone": "Spindle Drones",
        "traitor_guardsman": "Traitor Guardsmen",
        "ur_ghul": "Ur-Ghuls"
      }
    }
  },
  "hostileGroups": [
    {
      "id": "rogue_psyker+negavolt_cultist",
      "profiles": [
        "rogue_psyker",
        "negavolt_cultist"
      ]
    },
    {
      "id": "rogue_psyker+traitor_guardsman",
      "profiles": [
        "rogue_psyker",
        "traitor_guardsman"
      ]
    },
    {
      "id": "rogue_psyker+chaos_space_marine+traitor_guardsman",
      "profiles": [
        "rogue_psyker",
        "chaos_space_marine",
        "traitor_guardsman"
      ]
    },
    {
      "id": "chaos_beastman+traitor_guardsman",
      "profiles": [
        "chaos_beastman",
        "traitor_guardsman"
      ]
    },
    {
      "id": "chaos_space_marine+traitor_guardsman",
      "profiles": [
        "chaos_space_marine",
        "traitor_guardsman"
      ]
    },
    {
      "id": "chaos_space_marine+rogue_psyker+traitor_guardsman",
      "profiles": [
        "chaos_space_marine",
        "rogue_psyker",
        "traitor_guardsman"
      ]
    },
    {
      "id": "chaos_space_marine+chaos_beastman",
      "profiles": [
        "chaos_space_marine",
        "chaos_beastman"
      ]
    },
    {
      "id": "chaos_space_marine+negavol_cultist",
      "profiles": [
        "chaos_space_marine",
        "negavolt_cultist"
      ]
    },
    {
      "id": "negavolt_cultist+chaos_beastman",
      "profiles": [
        "negavolt_cultist",
        "chaos_beastman"
      ]
    },
    {
      "id": "negavolt_cultist+chaos_space_marine+traitor_guardsman",
      "profiles": [
        "negavolt_cultist",
        "chaos_space_marine",
        "traitor_guardsman"
      ]
    },
    {
      "id": "obsidius_mallex+chaos_space_marine+traitor_guardsman",
      "profiles": [
        "obsidius_mallex",
        "chaos_space_marine",
        "traitor_guardsman"
      ]
    },
    {
      "id": "obsidius_mallex+chaos_space_marine+rogue_psyker",
      "profiles": [
        "obsidius_mallex",
        "chaos_space_marine",
        "rogue_psyker"
      ]
    },
    {
      "id": "obsidius_mallex+chaos_space_marine",
      "profiles": [
        "obsidius_mallex",
        "chaos_space_marine"
      ]
    },
    {
      "id": "obsidius_mallex+chaos_beastman",
      "profiles": [
        "obsidius_mallex",
        "chaos_beastman"
      ]
    },
    {
      "id": "obsidius_mallex+traitor_guardsman",
      "profiles": [
        "obsidius_mallex",
        "traitor_guardsman"
      ]
    }
  ]
}
